<?xml version="1.0" encoding="UTF-8"?>
<osm version="0.6" generator="CGImap 0.3.1 (16420 thorn-01.openstreetmap.org)"
	copyright="OpenStreetMap and contributors" attribution="http://www.openstreetmap.org/copyright"
	license="http://opendatacommons.org/licenses/odbl/1-0/">
	<bounds minlat="14.6390400" minlon="121.0782800" maxlat="14.6406000"
		maxlon="121.0808300" />
	<node id="1234346511" visible="true" version="1" changeset="7781213"
		timestamp="2011-04-06T05:29:13Z" user="remzamora" uid="84952" lat="14.6401051"
		lon="121.0796793" />
	<node id="1234346514" visible="true" version="1" changeset="7781213"
		timestamp="2011-04-06T05:29:13Z" user="remzamora" uid="84952" lat="14.6398551"
		lon="121.0796203" />
	<node id="1234346515" visible="true" version="1" changeset="7781213"
		timestamp="2011-04-06T05:29:13Z" user="remzamora" uid="84952" lat="14.6402831"
		lon="121.0797678" />
	<node id="1234346517" visible="true" version="1" changeset="7781213"
		timestamp="2011-04-06T05:29:13Z" user="remzamora" uid="84952" lat="14.6399246"
		lon="121.0803463" />
	<node id="1234346523" visible="true" version="1" changeset="7781213"
		timestamp="2011-04-06T05:29:14Z" user="remzamora" uid="84952" lat="14.6404171"
		lon="121.0798736" />
	<node id="270393934" visible="true" version="4" changeset="606962"
		timestamp="2008-12-26T03:24:19Z" user="seav" uid="11126" lat="14.6362507"
		lon="121.0770079" />
	<node id="270393938" visible="true" version="3" changeset="11371764"
		timestamp="2012-04-21T09:37:04Z" user="maning" uid="1417" lat="14.6402140"
		lon="121.0795159" />
	<node id="270393931" visible="true" version="4" changeset="11390804"
		timestamp="2012-04-23T02:33:30Z" user="maning" uid="1417" lat="14.6366450"
		lon="121.0773010" />
	<node id="270393937" visible="true" version="7" changeset="11390804"
		timestamp="2012-04-23T02:33:30Z" user="maning" uid="1417" lat="14.6398420"
		lon="121.0793495" />
	<node id="270687500" visible="true" version="3" changeset="606962"
		timestamp="2008-12-26T03:24:19Z" user="seav" uid="11126" lat="14.6360729"
		lon="121.0768328" />
	<node id="270687499" visible="true" version="4" changeset="3394462"
		timestamp="2009-12-17T14:56:11Z" user="maning" uid="1417" lat="14.6359100"
		lon="121.0762512" />
	<node id="270687821" visible="true" version="7" changeset="9941586"
		timestamp="2011-11-25T08:06:16Z" user="ianlopez1115" uid="44938" lat="14.6404886"
		lon="121.0752415" />
	<node id="270687846" visible="true" version="2" changeset="606962"
		timestamp="2008-12-26T03:24:20Z" user="seav" uid="11126" lat="14.6408536"
		lon="121.0798262" />
	<node id="270687817" visible="true" version="8" changeset="11390804"
		timestamp="2012-04-23T02:33:30Z" user="maning" uid="1417" lat="14.6410523"
		lon="121.0771498" />
	<node id="270688138" visible="true" version="4" changeset="8644300"
		timestamp="2011-07-06T01:36:29Z" user="G-eMapper" uid="462835" lat="14.6404746"
		lon="121.0748045" />
	<node id="273729870" visible="true" version="2" changeset="606962"
		timestamp="2008-12-26T03:24:19Z" user="seav" uid="11126" lat="14.6359620"
		lon="121.0765859" />
	<node id="281017088" visible="true" version="3" changeset="3673557"
		timestamp="2010-01-21T10:52:57Z" user="Ian Haylock" uid="5541" lat="14.6395480"
		lon="121.0783318" />
	<node id="281017090" visible="true" version="3" changeset="3673557"
		timestamp="2010-01-21T10:52:58Z" user="Ian Haylock" uid="5541" lat="14.6394359"
		lon="121.0787591" />
	<node id="281017243" visible="true" version="3" changeset="3673557"
		timestamp="2010-01-21T10:52:58Z" user="Ian Haylock" uid="5541" lat="14.6394277"
		lon="121.0783341" />
	<node id="281018981" visible="true" version="2" changeset="7781213"
		timestamp="2011-04-06T05:29:14Z" user="remzamora" uid="84952" lat="14.6398144"
		lon="121.0802752" />
	<node id="281018979" visible="true" version="2" changeset="7781213"
		timestamp="2011-04-06T05:29:14Z" user="remzamora" uid="84952" lat="14.6404666"
		lon="121.0799422" />
	<node id="281018980" visible="true" version="2" changeset="7781213"
		timestamp="2011-04-06T05:29:14Z" user="remzamora" uid="84952" lat="14.6397903"
		lon="121.0796408" />
	<node id="281024262" visible="true" version="3" changeset="4703513"
		timestamp="2010-05-15T07:58:42Z" user="maning" uid="1417" lat="14.6383045"
		lon="121.0771073" />
	<node id="281024475" visible="true" version="1" changeset="594636"
		timestamp="2008-07-25T17:12:27Z" user="Rcadayona" uid="53025" lat="14.6392449"
		lon="121.0786034" />
	<node id="281024484" visible="true" version="4" changeset="4703513"
		timestamp="2010-05-15T07:58:33Z" user="maning" uid="1417" lat="14.6394112"
		lon="121.0782953" />
	<node id="281024546" visible="true" version="1" changeset="594636"
		timestamp="2008-07-25T17:12:47Z" user="Rcadayona" uid="53025" lat="14.6393612"
		lon="121.0789810" />
	<node id="281024754" visible="true" version="2" changeset="606962"
		timestamp="2008-12-26T03:24:20Z" user="seav" uid="11126" lat="14.6368209"
		lon="121.0774178" />
	<node id="281024752" visible="true" version="6" changeset="11390804"
		timestamp="2012-04-23T02:33:31Z" user="maning" uid="1417" lat="14.6396109"
		lon="121.0792648" />
	<node id="281024881" visible="true" version="4" changeset="9941586"
		timestamp="2011-11-25T08:06:16Z" user="ianlopez1115" uid="44938" lat="14.6401608"
		lon="121.0749245" />
	<node id="281953999" visible="true" version="2" changeset="14599409"
		timestamp="2013-01-10T16:17:35Z" user="dyan888" uid="1121157" lat="14.6390755"
		lon="121.0777315" />
	<node id="288063305" visible="true" version="3" changeset="4703513"
		timestamp="2010-05-15T07:58:36Z" user="maning" uid="1417" lat="14.6383892"
		lon="121.0769173" />
	<node id="288134153" visible="true" version="2" changeset="11390804"
		timestamp="2012-04-23T02:33:32Z" user="maning" uid="1417" lat="14.6404412"
		lon="121.0784283" />
	<node id="308868109" visible="true" version="4" changeset="3394462"
		timestamp="2009-12-17T14:56:11Z" user="maning" uid="1417" lat="14.6359036"
		lon="121.0760154" />
	<node id="270393936" visible="true" version="6" changeset="11390804"
		timestamp="2012-04-23T02:33:30Z" user="maning" uid="1417" lat="14.6393613"
		lon="121.0792475" />
	<node id="281013764" visible="true" version="5" changeset="4703513"
		timestamp="2010-05-15T07:58:32Z" user="maning" uid="1417" lat="14.6384851"
		lon="121.0776743" />
	<node id="281019510" visible="true" version="4" changeset="4703513"
		timestamp="2010-05-15T07:58:32Z" user="maning" uid="1417" lat="14.6383169"
		lon="121.0770693" />
	<node id="281019506" visible="true" version="4" changeset="4703513"
		timestamp="2010-05-15T07:58:35Z" user="maning" uid="1417" lat="14.6383418"
		lon="121.0774893" />
	<node id="281021950" visible="true" version="4" changeset="4703513"
		timestamp="2010-05-15T07:58:35Z" user="maning" uid="1417" lat="14.6385162"
		lon="121.0767863" />
	<node id="490796039" visible="true" version="1" changeset="2423746"
		timestamp="2009-09-09T11:32:17Z" user="ianlopez1115" uid="44938" lat="14.6397478"
		lon="121.0778398" />
	<node id="490798425" visible="true" version="1" changeset="2423746"
		timestamp="2009-09-09T11:33:33Z" user="ianlopez1115" uid="44938" lat="14.6397819"
		lon="121.0771413" />
	<node id="595203655" visible="true" version="5" changeset="14599409"
		timestamp="2013-01-10T16:17:37Z" user="dyan888" uid="1121157" lat="14.6390710"
		lon="121.0780041" />
	<node id="344393658" visible="true" version="2" changeset="3394462"
		timestamp="2009-12-17T14:56:11Z" user="maning" uid="1417" lat="14.6358765"
		lon="121.0750133" />
	<node id="281142212" visible="true" version="4" changeset="3394462"
		timestamp="2009-12-17T14:56:11Z" user="maning" uid="1417" lat="14.6359134"
		lon="121.0763771" />
	<node id="595502160" visible="true" version="3" changeset="9941586"
		timestamp="2011-11-25T08:06:19Z" user="ianlopez1115" uid="44938" lat="14.6407167"
		lon="121.0758559" />
	<node id="281017244" visible="true" version="3" changeset="3673557"
		timestamp="2010-01-21T10:52:58Z" user="Ian Haylock" uid="5541" lat="14.6395562"
		lon="121.0787568" />
	<node id="281019501" visible="true" version="6" changeset="14599409"
		timestamp="2013-01-10T16:17:37Z" user="dyan888" uid="1121157" lat="14.6390728"
		lon="121.0782511" />
	<node id="281019502" visible="true" version="6" changeset="14599409"
		timestamp="2013-01-10T16:17:37Z" user="dyan888" uid="1121157" lat="14.6389582"
		lon="121.0778143" />
	<node id="688353941" visible="true" version="1" changeset="4361279"
		timestamp="2010-04-08T06:20:39Z" user="maning" uid="1417" lat="14.6390748"
		lon="121.0782770" />
	<node id="688353933" visible="true" version="2" changeset="4379195"
		timestamp="2010-04-10T04:26:55Z" user="maning" uid="1417" lat="14.6375779"
		lon="121.0751561" />
	<node id="688353934" visible="true" version="2" changeset="4379195"
		timestamp="2010-04-10T04:26:55Z" user="maning" uid="1417" lat="14.6375212"
		lon="121.0760591" />
	<node id="688353936" visible="true" version="2" changeset="4379195"
		timestamp="2010-04-10T04:26:55Z" user="maning" uid="1417" lat="14.6368812"
		lon="121.0774301" />
	<node id="688353937" visible="true" version="2" changeset="4379195"
		timestamp="2010-04-10T04:26:55Z" user="maning" uid="1417" lat="14.6374949"
		lon="121.0764781" />
	<node id="688353944" visible="true" version="2" changeset="4703513"
		timestamp="2010-05-15T07:58:38Z" user="maning" uid="1417" lat="14.6397069"
		lon="121.0782950" />
	<node id="281024750" visible="true" version="4" changeset="9941586"
		timestamp="2011-11-25T08:06:16Z" user="ianlopez1115" uid="44938" lat="14.6410136"
		lon="121.0765927" />
	<node id="734881122" visible="true" version="1" changeset="4703513"
		timestamp="2010-05-15T07:58:23Z" user="maning" uid="1417" lat="14.6397149"
		lon="121.0783015" />
	<node id="281019499" visible="true" version="3" changeset="4703513"
		timestamp="2010-05-15T07:58:36Z" user="maning" uid="1417" lat="14.6401584"
		lon="121.0784813" />
	<node id="281019508" visible="true" version="4" changeset="4703513"
		timestamp="2010-05-15T07:58:37Z" user="maning" uid="1417" lat="14.6383585"
		lon="121.0773433" />
	<node id="281019514" visible="true" version="4" changeset="4703513"
		timestamp="2010-05-15T07:58:37Z" user="maning" uid="1417" lat="14.6385993"
		lon="121.0767513" />
	<node id="281019509" visible="true" version="4" changeset="4703513"
		timestamp="2010-05-15T07:58:40Z" user="maning" uid="1417" lat="14.6383169"
		lon="121.0772153" />
	<node id="617557036" visible="true" version="2" changeset="4703513"
		timestamp="2010-05-15T07:58:41Z" user="maning" uid="1417" lat="14.6397901"
		lon="121.0783023" />
	<node id="281024477" visible="true" version="4" changeset="4703513"
		timestamp="2010-05-15T07:58:41Z" user="maning" uid="1417" lat="14.6384166"
		lon="121.0774213" />
	<node id="281954184" visible="true" version="6" changeset="5179343"
		timestamp="2010-07-10T05:46:38Z" user="Ian Haylock" uid="5541" lat="14.6385564"
		lon="121.0777023" />
	<node id="273730077" visible="true" version="5" changeset="8644300"
		timestamp="2011-07-06T01:36:28Z" user="G-eMapper" uid="462835" lat="14.6404748"
		lon="121.0747205">
		<tag k="barrier" v="gate" />
		<tag k="name" v="Ateneo Gate 3" />
	</node>
	<node id="270687801" visible="true" version="10" changeset="8644300"
		timestamp="2011-07-06T01:36:29Z" user="G-eMapper" uid="462835" lat="14.6404772"
		lon="121.0746735" />
	<node id="1350934364" visible="true" version="2" changeset="9941586"
		timestamp="2011-11-25T08:06:16Z" user="ianlopez1115" uid="44938" lat="14.6406437"
		lon="121.0756832" />
	<node id="270687820" visible="true" version="7" changeset="9941586"
		timestamp="2011-11-25T08:06:16Z" user="ianlopez1115" uid="44938" lat="14.6405636"
		lon="121.0755290" />
	<node id="1516247271" visible="true" version="1" changeset="9941586"
		timestamp="2011-11-25T08:06:01Z" user="ianlopez1115" uid="44938" lat="14.6402821"
		lon="121.0758164" />
	<node id="1516247274" visible="true" version="1" changeset="9941586"
		timestamp="2011-11-25T08:06:01Z" user="ianlopez1115" uid="44938" lat="14.6405508"
		lon="121.0758039" />
	<node id="1516247278" visible="true" version="1" changeset="9941586"
		timestamp="2011-11-25T08:06:01Z" user="ianlopez1115" uid="44938" lat="14.6409644"
		lon="121.0780974" />
	<node id="1516247281" visible="true" version="1" changeset="9941586"
		timestamp="2011-11-25T08:06:01Z" user="ianlopez1115" uid="44938" lat="14.6410676"
		lon="121.0772168" />
	<node id="1516247282" visible="true" version="1" changeset="9941586"
		timestamp="2011-11-25T08:06:01Z" user="ianlopez1115" uid="44938" lat="14.6411025"
		lon="121.0786563" />
	<node id="1516247283" visible="true" version="1" changeset="9941586"
		timestamp="2011-11-25T08:06:01Z" user="ianlopez1115" uid="44938" lat="14.6411142"
		lon="121.0782092" />
	<node id="1516247291" visible="true" version="1" changeset="9941586"
		timestamp="2011-11-25T08:06:02Z" user="ianlopez1115" uid="44938" lat="14.6412723"
		lon="121.0773286" />
	<node id="281019638" visible="true" version="4" changeset="9941586"
		timestamp="2011-11-25T08:06:16Z" user="ianlopez1115" uid="44938" lat="14.6409681"
		lon="121.0772011" />
	<node id="688353945" visible="true" version="3" changeset="9941586"
		timestamp="2011-11-25T08:06:19Z" user="ianlopez1115" uid="44938" lat="14.6403678"
		lon="121.0783161" />
	<node id="277527121" visible="true" version="4" changeset="11371764"
		timestamp="2012-04-21T09:37:05Z" user="maning" uid="1417" lat="14.6404057"
		lon="121.0783335" />
	<node id="688353946" visible="true" version="4" changeset="11371977"
		timestamp="2012-04-21T10:05:09Z" user="maning" uid="1417" lat="14.6397274"
		lon="121.0792621" />
	<node id="1727286057" visible="true" version="1" changeset="11390804"
		timestamp="2012-04-23T02:33:12Z" user="maning" uid="1417" lat="14.6388372"
		lon="121.0800418" />
	<node id="1727286058" visible="true" version="1" changeset="11390804"
		timestamp="2012-04-23T02:33:13Z" user="maning" uid="1417" lat="14.6392284"
		lon="121.0798576" />
	<node id="1727286059" visible="true" version="1" changeset="11390804"
		timestamp="2012-04-23T02:33:13Z" user="maning" uid="1417" lat="14.6392468"
		lon="121.0797150" />
	<node id="1727286061" visible="true" version="1" changeset="11390804"
		timestamp="2012-04-23T02:33:13Z" user="maning" uid="1417" lat="14.6392883"
		lon="121.0794987" />
	<node id="1727286062" visible="true" version="1" changeset="11390804"
		timestamp="2012-04-23T02:33:13Z" user="maning" uid="1417" lat="14.6392973"
		lon="121.0801022" />
	<node id="1727286063" visible="true" version="1" changeset="11390804"
		timestamp="2012-04-23T02:33:13Z" user="maning" uid="1417" lat="14.6392981"
		lon="121.0801398" />
	<node id="1727286068" visible="true" version="1" changeset="11390804"
		timestamp="2012-04-23T02:33:13Z" user="maning" uid="1417" lat="14.6395714"
		lon="121.0793008" />
	<node id="1727286069" visible="true" version="1" changeset="11390804"
		timestamp="2012-04-23T02:33:13Z" user="maning" uid="1417" lat="14.6396391"
		lon="121.0808507" />
	<node id="1727286070" visible="true" version="1" changeset="11390804"
		timestamp="2012-04-23T02:33:13Z" user="maning" uid="1417" lat="14.6398567"
		lon="121.0811234" />
	<node id="1727286071" visible="true" version="1" changeset="11390804"
		timestamp="2012-04-23T02:33:13Z" user="maning" uid="1417" lat="14.6398659"
		lon="121.0807506" />
	<node id="1727286072" visible="true" version="1" changeset="11390804"
		timestamp="2012-04-23T02:33:13Z" user="maning" uid="1417" lat="14.6399526"
		lon="121.0793125" />
	<node id="1727286073" visible="true" version="1" changeset="11390804"
		timestamp="2012-04-23T02:33:13Z" user="maning" uid="1417" lat="14.6399903"
		lon="121.0793666" />
	<node id="1727286074" visible="true" version="1" changeset="11390804"
		timestamp="2012-04-23T02:33:13Z" user="maning" uid="1417" lat="14.6403903"
		lon="121.0784465" />
	<node id="1727286075" visible="true" version="1" changeset="11390804"
		timestamp="2012-04-23T02:33:13Z" user="maning" uid="1417" lat="14.6404091"
		lon="121.0795361" />
	<node id="1727286076" visible="true" version="1" changeset="11390804"
		timestamp="2012-04-23T02:33:14Z" user="maning" uid="1417" lat="14.6405197"
		lon="121.0784489" />
	<node id="1727286077" visible="true" version="1" changeset="11390804"
		timestamp="2012-04-23T02:33:14Z" user="maning" uid="1417" lat="14.6406915"
		lon="121.0797079" />
	<node id="1727286078" visible="true" version="1" changeset="11390804"
		timestamp="2012-04-23T02:33:14Z" user="maning" uid="1417" lat="14.6407951"
		lon="121.0797502" />
	<node id="1727286079" visible="true" version="1" changeset="11390804"
		timestamp="2012-04-23T02:33:14Z" user="maning" uid="1417" lat="14.6412304"
		lon="121.0788654" />
	<node id="1727286080" visible="true" version="1" changeset="11390804"
		timestamp="2012-04-23T02:33:14Z" user="maning" uid="1417" lat="14.6412446"
		lon="121.0789525" />
	<node id="1472664852" visible="true" version="2" changeset="11390804"
		timestamp="2012-04-23T02:33:21Z" user="maning" uid="1417" lat="14.6393965"
		lon="121.0806507" />
	<node id="1472664854" visible="true" version="2" changeset="11390804"
		timestamp="2012-04-23T02:33:22Z" user="maning" uid="1417" lat="14.6393854"
		lon="121.0801003" />
	<node id="1472664859" visible="true" version="2" changeset="11390804"
		timestamp="2012-04-23T02:33:22Z" user="maning" uid="1417" lat="14.6390713"
		lon="121.0801446" />
	<node id="1472664861" visible="true" version="2" changeset="11390804"
		timestamp="2012-04-23T02:33:22Z" user="maning" uid="1417" lat="14.6390816"
		lon="121.0806574" />
	<node id="1516247273" visible="true" version="2" changeset="11390804"
		timestamp="2012-04-23T02:33:22Z" user="maning" uid="1417" lat="14.6404808"
		lon="121.0782958" />
	<node id="1725130526" visible="true" version="2" changeset="11390804"
		timestamp="2012-04-23T02:33:25Z" user="maning" uid="1417" lat="14.6394498"
		lon="121.0806918" />
	<node id="1725130534" visible="true" version="2" changeset="11390804"
		timestamp="2012-04-23T02:33:25Z" user="maning" uid="1417" lat="14.6399364"
		lon="121.0811964" />
	<node id="1725130542" visible="true" version="2" changeset="11390804"
		timestamp="2012-04-23T02:33:26Z" user="maning" uid="1417" lat="14.6397050"
		lon="121.0806409" />
	<node id="1725130543" visible="true" version="2" changeset="11390804"
		timestamp="2012-04-23T02:33:26Z" user="maning" uid="1417" lat="14.6395929"
		lon="121.0808362" />
	<node id="1725130547" visible="true" version="2" changeset="11390804"
		timestamp="2012-04-23T02:33:26Z" user="maning" uid="1417" lat="14.6396683"
		lon="121.0807564" />
	<node id="1725130549" visible="true" version="2" changeset="11390804"
		timestamp="2012-04-23T02:33:26Z" user="maning" uid="1417" lat="14.6396419"
		lon="121.0807071" />
	<node id="1725130554" visible="true" version="2" changeset="11390804"
		timestamp="2012-04-23T02:33:26Z" user="maning" uid="1417" lat="14.6399133"
		lon="121.0806589" />
	<node id="1725130555" visible="true" version="2" changeset="11390804"
		timestamp="2012-04-23T02:33:26Z" user="maning" uid="1417" lat="14.6400351"
		lon="121.0811918" />
	<node id="1725130559" visible="true" version="2" changeset="11390804"
		timestamp="2012-04-23T02:33:26Z" user="maning" uid="1417" lat="14.6395252"
		lon="121.0806120" />
	<node id="1725130560" visible="true" version="2" changeset="11390804"
		timestamp="2012-04-23T02:33:26Z" user="maning" uid="1417" lat="14.6395322"
		lon="121.0805955" />
	<node id="1725130562" visible="true" version="2" changeset="11390804"
		timestamp="2012-04-23T02:33:26Z" user="maning" uid="1417" lat="14.6395954"
		lon="121.0805292" />
	<node id="1725130570" visible="true" version="2" changeset="11390804"
		timestamp="2012-04-23T02:33:27Z" user="maning" uid="1417" lat="14.6400120"
		lon="121.0806543" />
	<node id="270687818" visible="true" version="7" changeset="11390804"
		timestamp="2012-04-23T02:33:30Z" user="maning" uid="1417" lat="14.6411168"
		lon="121.0768840" />
	<node id="270687819" visible="true" version="8" changeset="11390804"
		timestamp="2012-04-23T02:33:30Z" user="maning" uid="1417" lat="14.6411248"
		lon="121.0766799" />
	<node id="271585411" visible="true" version="4" changeset="11390804"
		timestamp="2012-04-23T02:33:30Z" user="maning" uid="1417" lat="14.6379733"
		lon="121.0782510" />
	<node id="273555559" visible="true" version="5" changeset="11390804"
		timestamp="2012-04-23T02:33:30Z" user="maning" uid="1417" lat="14.6395127"
		lon="121.0799046" />
	<node id="277527102" visible="true" version="3" changeset="11390804"
		timestamp="2012-04-23T02:33:31Z" user="maning" uid="1417" lat="14.6413311"
		lon="121.0788721" />
	<node id="281024757" visible="true" version="5" changeset="11390804"
		timestamp="2012-04-23T02:33:31Z" user="maning" uid="1417" lat="14.6382277"
		lon="121.0784389" />
	<node id="281953865" visible="true" version="4" changeset="11390804"
		timestamp="2012-04-23T02:33:31Z" user="maning" uid="1417" lat="14.6399545"
		lon="121.0792173" />
	<node id="288134148" visible="true" version="3" changeset="11390804"
		timestamp="2012-04-23T02:33:32Z" user="maning" uid="1417" lat="14.6411700"
		lon="121.0788098" />
	<node id="288134149" visible="true" version="3" changeset="11390804"
		timestamp="2012-04-23T02:33:32Z" user="maning" uid="1417" lat="14.6408749"
		lon="121.0796759" />
	<node id="312916071" visible="true" version="2" changeset="11390804"
		timestamp="2012-04-23T02:33:32Z" user="maning" uid="1417" lat="14.6392714"
		lon="121.0798525" />
	<node id="312916072" visible="true" version="2" changeset="11390804"
		timestamp="2012-04-23T02:33:32Z" user="maning" uid="1417" lat="14.6390958"
		lon="121.0798732" />
	<node id="312916073" visible="true" version="2" changeset="11390804"
		timestamp="2012-04-23T02:33:33Z" user="maning" uid="1417" lat="14.6389710"
		lon="121.0799773" />
	<node id="384243979" visible="true" version="2" changeset="11390804"
		timestamp="2012-04-23T02:33:33Z" user="maning" uid="1417" lat="14.6394509"
		lon="121.0801270" />
	<node id="384243980" visible="true" version="2" changeset="11390804"
		timestamp="2012-04-23T02:33:33Z" user="maning" uid="1417" lat="14.6394523"
		lon="121.0802333" />
	<node id="384243981" visible="true" version="2" changeset="11390804"
		timestamp="2012-04-23T02:33:33Z" user="maning" uid="1417" lat="14.6395298"
		lon="121.0804112" />
	<node id="384243982" visible="true" version="2" changeset="11390804"
		timestamp="2012-04-23T02:33:33Z" user="maning" uid="1417" lat="14.6398001"
		lon="121.0806948" />
	<node id="384243988" visible="true" version="2" changeset="11390804"
		timestamp="2012-04-23T02:33:33Z" user="maning" uid="1417" lat="14.6395528"
		lon="121.0809330" />
	<node id="595502159" visible="true" version="3" changeset="11390804"
		timestamp="2012-04-23T02:33:33Z" user="maning" uid="1417" lat="14.6410744"
		lon="121.0764419" />
	<node id="281015592" visible="true" version="4" changeset="14599409"
		timestamp="2013-01-10T16:17:34Z" user="dyan888" uid="1121157" lat="14.6389590"
		lon="121.0785573" />
	<node id="1725146197" visible="true" version="2" changeset="14599409"
		timestamp="2013-01-10T16:17:36Z" user="dyan888" uid="1121157" lat="14.6388555"
		lon="121.0781229" />
	<node id="281018390" visible="true" version="5" changeset="14599409"
		timestamp="2013-01-10T16:17:36Z" user="dyan888" uid="1121157" lat="14.6401893"
		lon="121.0782234" />
	<node id="1725146192" visible="true" version="2" changeset="14599409"
		timestamp="2013-01-10T16:17:36Z" user="dyan888" uid="1121157" lat="14.6388523"
		lon="121.0778155" />
	<node id="281018391" visible="true" version="5" changeset="14599409"
		timestamp="2013-01-10T16:17:37Z" user="dyan888" uid="1121157" lat="14.6400663"
		lon="121.0781551" />
	<node id="281018392" visible="true" version="5" changeset="14599409"
		timestamp="2013-01-10T16:17:37Z" user="dyan888" uid="1121157" lat="14.6397663"
		lon="121.0787320" />
	<node id="281015589" visible="true" version="6" changeset="14599409"
		timestamp="2013-01-10T16:17:37Z" user="dyan888" uid="1121157" lat="14.6390697"
		lon="121.0778135" />
	<node id="1725146201" visible="true" version="2" changeset="14599409"
		timestamp="2013-01-10T16:17:38Z" user="dyan888" uid="1121157" lat="14.6389545"
		lon="121.0781218" />
	<node id="281019515" visible="true" version="4" changeset="14599409"
		timestamp="2013-01-10T16:17:38Z" user="dyan888" uid="1121157" lat="14.6390759"
		lon="121.0785560" />
	<node id="688353942" visible="true" version="4" changeset="14599409"
		timestamp="2013-01-10T16:17:39Z" user="dyan888" uid="1121157" lat="14.6397136"
		lon="121.0777303" />
	<node id="281018393" visible="true" version="5" changeset="14599409"
		timestamp="2013-01-10T16:17:40Z" user="dyan888" uid="1121157" lat="14.6398892"
		lon="121.0788003" />
	<node id="281024755" visible="true" version="7" changeset="15038735"
		timestamp="2013-02-15T10:53:47Z" user="maning" uid="1417" lat="14.6377415"
		lon="121.0749647" />
	<node id="595203592" visible="true" version="2" changeset="15038735"
		timestamp="2013-02-15T10:53:47Z" user="maning" uid="1417" lat="14.6359274"
		lon="121.0765068" />
	<node id="281019029" visible="true" version="3" changeset="17103648"
		timestamp="2013-07-26T16:01:17Z" user="maning" uid="1417" lat="14.6401166"
		lon="121.0799714">
		<tag k="amenity" v="place_of_worship" />
		<tag k="denomination" v="catholic" />
		<tag k="name" v="Church of the Gesu" />
		<tag k="religion" v="christian" />
		<tag k="source" v="rcadayona" />
	</node>
	<way id="25468789" visible="true" version="4" changeset="15038735"
		timestamp="2013-02-15T10:53:44Z" user="maning" uid="1417">
		<nd ref="277527121" />
		<nd ref="277527102" />
		<tag k="access" v="private" />
		<tag k="highway" v="service" />
		<tag k="name" v="Parade Loop" />
		<tag k="oneway" v="yes" />
	</way>
	<way id="25766683" visible="true" version="6" changeset="5312000"
		timestamp="2010-07-25T13:40:42Z" user="seav" uid="11126">
		<nd ref="281017088" />
		<nd ref="281017243" />
		<nd ref="281017090" />
		<nd ref="281017244" />
		<nd ref="281017088" />
		<tag k="building" v="yes" />
		<tag k="name" v="Berchmans Hall" />
		<tag k="source" v="rcadayona" />
	</way>
	<way id="25766811" visible="true" version="8" changeset="14757196"
		timestamp="2013-01-23T13:29:17Z" user="Ian Haylock" uid="5541">
		<nd ref="490798425" />
		<nd ref="490796039" />
		<nd ref="734881122" />
		<tag k="highway" v="footway" />
	</way>
	<way id="25766954" visible="true" version="5" changeset="5312000"
		timestamp="2010-07-25T13:41:47Z" user="seav" uid="11126">
		<nd ref="281019501" />
		<nd ref="281024475" />
		<nd ref="281024484" />
		<tag k="highway" v="footway" />
	</way>
	<way id="25766987" visible="true" version="10" changeset="15156943"
		timestamp="2013-02-25T04:58:17Z" user="Ian Haylock" uid="5541">
		<nd ref="281024881" />
		<nd ref="1516247271" />
		<nd ref="1516247274" />
		<nd ref="281024750" />
		<nd ref="281019638" />
		<nd ref="688353945" />
		<nd ref="688353946" />
		<nd ref="281024752" />
		<nd ref="688353936" />
		<nd ref="688353937" />
		<nd ref="688353934" />
		<nd ref="688353933" />
		<nd ref="281024755" />
		<nd ref="281024881" />
		<tag k="amenity" v="college" />
		<tag k="name" v="Loyola Schools" />
	</way>
	<way id="25849643" visible="true" version="8" changeset="12397736"
		timestamp="2012-07-21T01:08:54Z" user="OSMF Redaction Account" uid="722137">
		<nd ref="281953999" />
		<nd ref="688353942" />
		<nd ref="688353944" />
		<nd ref="688353941" />
		<nd ref="281953999" />
		<tag k="landuse" v="garden" />
		<tag k="name" v="Quad 1" />
	</way>
	<way id="26301595" visible="true" version="5" changeset="11390804"
		timestamp="2012-04-23T02:33:16Z" user="maning" uid="1417">
		<nd ref="281953865" />
		<nd ref="1727286072" />
		<nd ref="1727286073" />
		<nd ref="1727286075" />
		<nd ref="1727286077" />
		<nd ref="1727286078" />
		<nd ref="288134149" />
		<nd ref="1727286080" />
		<nd ref="1727286079" />
		<nd ref="288134148" />
		<nd ref="1727286076" />
		<nd ref="288134153" />
		<nd ref="1727286074" />
		<nd ref="281953865" />
		<tag k="landuse" v="grass" />
		<tag k="name" v="Bellarmine Field" />
		<tag k="note"
			v="find a better key=tag combination, landuse=grass is temporary" />
	</way>
	<way id="28483218" visible="true" version="4" changeset="11390804"
		timestamp="2012-04-23T02:33:18Z" user="maning" uid="1417">
		<nd ref="273555559" />
		<nd ref="312916071" />
		<nd ref="1727286058" />
		<nd ref="312916072" />
		<nd ref="312916073" />
		<nd ref="1727286057" />
		<tag k="access" v="private" />
		<tag k="highway" v="service" />
		<tag k="postal_code" v="1108" />
	</way>
	<way id="33614901" visible="true" version="4" changeset="11390804"
		timestamp="2012-04-23T02:33:19Z" user="maning" uid="1417">
		<nd ref="273555559" />
		<nd ref="384243979" />
		<nd ref="384243980" />
		<nd ref="384243981" />
		<nd ref="384243982" />
		<nd ref="1727286069" />
		<nd ref="384243988" />
		<tag k="access" v="private" />
		<tag k="highway" v="service" />
		<tag k="postal_code" v="1108" />
	</way>
	<way id="25766748" visible="true" version="2" changeset="3673557"
		timestamp="2010-01-21T10:53:18Z" user="Ian Haylock" uid="5541">
		<nd ref="281018390" />
		<nd ref="281018391" />
		<nd ref="281018392" />
		<nd ref="281018393" />
		<nd ref="281018390" />
		<tag k="building" v="yes" />
		<tag k="layer" v="1" />
		<tag k="name" v="Xavier Hall" />
		<tag k="source" v="rcadayona" />
	</way>
	<way id="25766794" visible="true" version="15" changeset="12397736"
		timestamp="2012-07-21T01:08:55Z" user="OSMF Redaction Account" uid="722137">
		<nd ref="281019499" />
		<nd ref="617557036" />
		<nd ref="734881122" />
		<nd ref="281024484" />
		<nd ref="281019501" />
		<nd ref="595203655" />
		<nd ref="281015589" />
		<nd ref="281019502" />
		<nd ref="281954184" />
		<nd ref="281013764" />
		<nd ref="281019506" />
		<nd ref="281024477" />
		<nd ref="281019508" />
		<nd ref="281019509" />
		<nd ref="281024262" />
		<nd ref="281019510" />
		<nd ref="288063305" />
		<nd ref="281021950" />
		<nd ref="281019514" />
		<tag k="highway" v="footway" />
	</way>
	<way id="25766952" visible="true" version="6" changeset="11390804"
		timestamp="2012-04-23T02:33:19Z" user="maning" uid="1417">
		<nd ref="281024475" />
		<nd ref="281024546" />
		<nd ref="270393936" />
		<nd ref="1727286061" />
		<nd ref="1727286059" />
		<nd ref="1727286058" />
		<tag k="highway" v="footway" />
	</way>
	<way id="25766778" visible="true" version="3" changeset="7781213"
		timestamp="2011-04-06T05:29:14Z" user="remzamora" uid="84952">
		<nd ref="281018979" />
		<nd ref="1234346523" />
		<nd ref="1234346515" />
		<nd ref="1234346511" />
		<nd ref="1234346514" />
		<nd ref="281018980" />
		<nd ref="281018981" />
		<nd ref="1234346517" />
		<nd ref="281018979" />
		<tag k="amenity" v="place_of_worship" />
	</way>
	<way id="138294142" visible="true" version="1" changeset="9941586"
		timestamp="2011-11-25T08:06:08Z" user="ianlopez1115" uid="44938">
		<nd ref="1516247282" />
		<nd ref="1516247273" />
		<nd ref="1516247281" />
		<nd ref="1516247291" />
		<nd ref="1516247278" />
		<nd ref="1516247283" />
		<nd ref="1516247282" />
		<tag k="amenity" v="parking" />
		<tag k="name" v="North Car Park" />
		<tag k="previously" v="node:277527248" />
		<tag k="source" v="Bing" />
	</way>
	<way id="24911809" visible="true" version="17" changeset="15038735"
		timestamp="2013-02-15T10:53:44Z" user="maning" uid="1417">
		<nd ref="270687801" />
		<nd ref="273730077" />
		<nd ref="270688138" />
		<nd ref="270687821" />
		<nd ref="270687820" />
		<nd ref="1350934364" />
		<nd ref="595502160" />
		<nd ref="595502159" />
		<nd ref="270687819" />
		<nd ref="270687818" />
		<nd ref="270687817" />
		<nd ref="277527121" />
		<nd ref="270393937" />
		<tag k="access" v="private" />
		<tag k="highway" v="unclassified" />
		<tag k="name" v="University Road" />
		<tag k="oneway" v="yes" />
	</way>
	<way id="160456350" visible="true" version="1" changeset="11371833"
		timestamp="2012-04-21T09:46:47Z" user="maning" uid="1417">
		<nd ref="1725130542" />
		<nd ref="1725130549" />
		<nd ref="1725130560" />
		<nd ref="1725130562" />
		<nd ref="1725130542" />
		<tag k="building" v="yes" />
	</way>
	<way id="160456353" visible="true" version="1" changeset="11371833"
		timestamp="2012-04-21T09:46:47Z" user="maning" uid="1417">
		<nd ref="1725130570" />
		<nd ref="1725130555" />
		<nd ref="1725130534" />
		<nd ref="1725130554" />
		<nd ref="1725130570" />
		<tag k="building" v="yes" />
	</way>
	<way id="160456355" visible="true" version="1" changeset="11371833"
		timestamp="2012-04-21T09:46:48Z" user="maning" uid="1417">
		<nd ref="1725130526" />
		<nd ref="1725130543" />
		<nd ref="1725130547" />
		<nd ref="1725130559" />
		<nd ref="1725130526" />
		<tag k="building" v="yes" />
	</way>
	<way id="25766591" visible="true" version="4" changeset="11371977"
		timestamp="2012-04-21T10:05:11Z" user="maning" uid="1417">
		<nd ref="281015589" />
		<nd ref="281019502" />
		<nd ref="1725146192" />
		<nd ref="1725146197" />
		<nd ref="1725146201" />
		<nd ref="281015592" />
		<nd ref="281019515" />
		<nd ref="281019501" />
		<nd ref="595203655" />
		<nd ref="281015589" />
		<tag k="building" v="yes" />
		<tag k="name" v="Gonzaga Hall" />
		<tag k="source" v="rcadayona" />
	</way>
	<way id="160693282" visible="true" version="2" changeset="15769612"
		timestamp="2013-04-18T06:18:20Z" user="maning" uid="1417">
		<nd ref="384243982" />
		<nd ref="1727286071" />
		<nd ref="1727286070" />
		<nd ref="1727286069" />
		<tag k="access" v="private" />
		<tag k="highway" v="service" />
	</way>
	<way id="133805065" visible="true" version="2" changeset="11390804"
		timestamp="2012-04-23T02:33:16Z" user="maning" uid="1417">
		<nd ref="1472664854" />
		<nd ref="1727286062" />
		<nd ref="1727286063" />
		<nd ref="1472664859" />
		<nd ref="1472664861" />
		<nd ref="1472664852" />
		<nd ref="1472664854" />
		<tag k="amenity" v="university" />
		<tag k="building" v="yes" />
		<tag k="name" v="Cervini Hall" />
	</way>
	<way id="205611775" visible="true" version="1" changeset="15038735"
		timestamp="2013-02-15T10:53:42Z" user="maning" uid="1417">
		<nd ref="270687846" />
		<nd ref="270393938" />
		<nd ref="270393937" />
		<nd ref="1727286068" />
		<nd ref="270393936" />
		<nd ref="281024757" />
		<nd ref="271585411" />
		<nd ref="281024754" />
		<nd ref="270393931" />
		<nd ref="270393934" />
		<nd ref="270687500" />
		<nd ref="273729870" />
		<nd ref="595203592" />
		<nd ref="281142212" />
		<nd ref="270687499" />
		<nd ref="308868109" />
		<nd ref="344393658" />
		<tag k="access" v="private" />
		<tag k="highway" v="unclassified" />
		<tag k="name" v="Father Masterson Drive" />
		<tag k="oneway" v="yes" />
		<tag k="postal_code" v="1108" />
	</way>
	<way id="205611778" visible="true" version="1" changeset="15038735"
		timestamp="2013-02-15T10:53:42Z" user="maning" uid="1417">
		<nd ref="270393937" />
		<nd ref="273555559" />
		<tag k="access" v="private" />
		<tag k="highway" v="unclassified" />
		<tag k="name" v="University Road" />
	</way>
</osm>
